<svg width="16" height="14" viewBox="0 0 16 14" fill="none" xmlns="http://www.w3.org/2000/svg">
<path fill-rule="evenodd" clip-rule="evenodd" d="M1.25 0C0.559644 0 0 0.559644 0 1.25C0 1.94036 0.559644 2.5 1.25 2.5H14.75C15.4404 2.5 16 1.94036 16 1.25C16 0.559644 15.4404 0 14.75 0H1.25ZM0 7C0 6.30964 0.559644 5.75 1.25 5.75H14.75C15.4404 5.75 16 6.30964 16 7C16 7.69036 15.4404 8.25 14.75 8.25H1.25C0.559644 8.25 0 7.69036 0 7ZM0 12.75C0 12.0596 0.559644 11.5 1.25 11.5H14.75C15.4404 11.5 16 12.0596 16 12.75C16 13.4404 15.4404 14 14.75 14H1.25C0.559644 14 0 13.4404 0 12.75Z" fill="#2261B6"/>
</svg>
