<svg width="24" height="24" viewBox="0 0 24 24" fill="none" xmlns="http://www.w3.org/2000/svg">
<path d="M7.7322 16.7072L1 13.0131V10.967L7.7322 7.29378V9.69701L3.04109 11.9644L7.7322 14.3173V16.7072Z" fill="#F9D94A"/>
<path d="M8.88229 18L13.3469 6H14.7573L10.2824 18H8.88229Z" fill="#F9D94A"/>
<path d="M16.2678 16.7072V14.3172L20.958 11.9834L16.2678 9.66752V7.29278L23 10.9708V13.0045L16.2678 16.7072Z" fill="#F9D94A"/>
</svg>
