<svg width="24" height="24" viewBox="0 0 24 24" fill="none" xmlns="http://www.w3.org/2000/svg">
<path d="M14.9096 10.2206C15.0477 10.3571 15.2714 10.357 15.4095 10.2205L17.107 8.54083L18.651 10.0787C18.7627 10.1893 18.9273 10.2291 19.0781 10.1826C19.2289 10.1357 19.341 10.0103 19.369 9.85643L18.9939 5.44321C19.016 5.32132 18.9765 5.19671 18.8877 5.10963C18.7993 5.02216 18.673 4.98387 18.5502 5.00651L14.1182 4.64282C13.9631 4.67173 13.8371 4.7827 13.7906 4.93186C13.744 5.08073 13.7847 5.24322 13.896 5.35335L15.4395 6.89122L13.7412 8.57109C13.603 8.70778 13.6031 8.92949 13.7413 9.06613L14.9096 10.2206Z" fill="#7986B5"/>
<path d="M9.09033 13.7797C8.95221 13.6432 8.72845 13.6432 8.59041 13.7798L6.893 15.4595L5.34903 13.9216C5.23726 13.811 5.0727 13.7712 4.92191 13.8176C4.77107 13.8645 4.659 13.9899 4.63092 14.1438L5.00604 18.5571C4.98398 18.6789 5.02345 18.8035 5.11224 18.8906C5.20068 18.9781 5.32701 19.0164 5.44978 18.9937L9.88177 19.3574C10.0369 19.3285 10.1628 19.2175 10.2094 19.0683C10.256 18.9195 10.2153 18.757 10.104 18.6469L8.56045 17.109L10.2606 15.4318C10.3991 15.2952 10.3992 15.0732 10.2608 14.9364L9.09033 13.7797Z" fill="#7986B5"/>
<path d="M4.63086 9.85686C4.65886 10.0108 4.77098 10.1361 4.9218 10.183C5.07261 10.2295 5.2372 10.1897 5.34892 10.0791L6.89291 8.54127L8.5904 10.2209C8.72841 10.3575 8.95217 10.3576 9.09029 10.2211L10.2585 9.06659C10.3968 8.92995 10.3969 8.70824 10.2587 8.57155L8.56036 6.89168L10.1039 5.35381C10.2153 5.24368 10.2559 5.08119 10.2093 4.93232C10.1627 4.78316 10.0368 4.67219 9.88168 4.64328L5.44971 5.00696C5.32692 4.98432 5.20059 5.0226 5.11215 5.11009C5.02336 5.19717 4.98384 5.32178 5.00598 5.44367L4.63086 9.85686Z" fill="#7986B5"/>
<path d="M19.3689 14.1438C19.3409 13.9899 19.2288 13.8646 19.078 13.8176C18.9272 13.7712 18.7626 13.811 18.6508 13.9216L17.1069 15.4594L15.4094 13.7798C15.2714 13.6432 15.0476 13.6432 14.9095 13.7796L13.7391 14.9364C13.6007 15.0732 13.6008 15.2952 13.7393 15.4318L15.4394 17.109L13.8959 18.6469C13.7845 18.757 13.7439 18.9195 13.7904 19.0683C13.8371 19.2175 13.9629 19.3285 14.1181 19.3574L18.5501 18.9937C18.6728 19.0164 18.7992 18.9781 18.8876 18.8906C18.9764 18.8035 19.0159 18.6789 18.9938 18.5571L19.3689 14.1438Z" fill="#7986B5"/>
</svg>
