<svg width="24" height="24" viewBox="0 0 24 24" fill="none" xmlns="http://www.w3.org/2000/svg">
<path d="M2.83334 8.4C3.29334 8.4 3.66667 8.0424 3.66667 7.6V6.4C3.66667 5.9584 4.04084 5.6 4.50001 5.6H5.75001C6.21001 5.6 6.58334 5.2424 6.58334 4.8C6.58334 4.3576 6.21001 4 5.75001 4H4.50001C3.12167 4 2 5.0768 2 6.4V7.6C2 8.0424 2.37333 8.4 2.83334 8.4Z" fill="#2261B6"/>
<path d="M19.5 4H18.25C17.79 4 17.4166 4.3576 17.4166 4.8C17.4166 5.2424 17.79 5.6 18.25 5.6H19.5C19.9592 5.6 20.3333 5.9584 20.3333 6.4V7.6C20.3333 8.0424 20.7067 8.4 21.1667 8.4C21.6267 8.4 22 8.0424 22 7.6V6.4C22 5.0768 20.8783 4 19.5 4Z" fill="#2261B6"/>
<path d="M2 17.6C2 18.9232 3.12167 20 4.50001 20H5.75001C6.21001 20 6.58334 19.6424 6.58334 19.2C6.58334 18.7576 6.21001 18.4 5.75001 18.4H4.50001C4.04084 18.4 3.66667 18.0416 3.66667 17.6V16.4C3.66667 15.9576 3.29334 15.6 2.83334 15.6C2.37333 15.6 2 15.9576 2 16.4V17.6Z" fill="#2261B6"/>
<path d="M21.1667 15.6C20.7067 15.6 20.3333 15.9576 20.3333 16.4V17.6C20.3333 18.0416 19.9592 18.4 19.5 18.4H18.25C17.79 18.4 17.4166 18.7576 17.4166 19.2C17.4166 19.6424 17.79 20 18.25 20H19.5C20.8783 20 22 18.9232 22 17.6V16.4C22 15.9576 21.6267 15.6 21.1667 15.6Z" fill="#2261B6"/>
<path d="M11.9991 16.856C15.2074 16.856 17.9408 14.92 18.6491 12.1439C18.6741 12.0479 18.6741 11.9519 18.6491 11.8559C17.9408 9.07994 15.2074 7.14394 11.9991 7.14394C8.79075 7.14394 6.05741 9.07994 5.34908 11.8559C5.32408 11.9519 5.32408 12.0479 5.34908 12.1439C6.05741 14.92 8.79075 16.856 11.9991 16.856ZM11.9991 9.59994C13.3741 9.59994 14.4991 10.6799 14.4991 11.9999C14.4991 13.32 13.3741 14.4 11.9991 14.4C10.6241 14.4 9.49909 13.32 9.49909 11.9999C9.49909 10.6799 10.6241 9.59994 11.9991 9.59994Z" fill="#2261B6"/>
</svg>
