<svg width="24" height="24" viewBox="0 0 24 24" fill="none" xmlns="http://www.w3.org/2000/svg">
<path d="M0 3.59999C0 1.61177 1.61176 0 3.59998 0H7.19995C9.18817 0 10.7999 1.61177 10.7999 3.59999V7.19999C10.7999 9.18821 9.18817 10.8 7.19995 10.8H3.59998C1.61176 10.8 0 9.18821 0 7.19999V3.59999Z" fill="#1D92FF"/>
<path d="M7.20007 5.40009C7.20007 5.70501 6.95289 5.95219 6.64797 5.95219H5.966V6.63782C5.966 6.94835 5.71427 7.20009 5.40374 7.20009C5.0932 7.20009 4.84147 6.94835 4.84147 6.63782V5.95219H4.1522C3.84728 5.95219 3.6001 5.70501 3.6001 5.40009C3.6001 5.09518 3.84728 4.84799 4.1522 4.84799H4.84147V4.16237C4.84147 3.85183 5.0932 3.6001 5.40374 3.6001C5.71427 3.6001 5.966 3.85183 5.966 4.16237V4.84799H6.64797C6.95289 4.84799 7.20007 5.09518 7.20007 5.40009Z" fill="white"/>
<path d="M13.2002 3.59999C13.2002 1.61177 14.812 0 16.8002 0H20.4001C22.3884 0 24.0001 1.61177 24.0001 3.59999V7.19999C24.0001 9.18821 22.3884 10.8 20.4001 10.8H16.8002C14.812 10.8 13.2002 9.18821 13.2002 7.19999V3.59999Z" fill="#2261B6"/>
<path d="M16.8003 5.3998C16.8003 5.06843 17.0689 4.7998 17.4003 4.7998H19.8003C20.1316 4.7998 20.4003 5.06843 20.4003 5.3998C20.4003 5.73117 20.1316 5.9998 19.8003 5.9998H17.4003C17.0689 5.9998 16.8003 5.73117 16.8003 5.3998Z" fill="white"/>
<path d="M0 16.7999C0 14.8117 1.61176 13.2 3.59998 13.2H7.19995C9.18817 13.2 10.7999 14.8117 10.7999 16.7999V20.3999C10.7999 22.3882 9.18817 23.9999 7.19995 23.9999H3.59998C1.61176 23.9999 0 22.3882 0 20.3999V16.7999Z" fill="#2261B6"/>
<path d="M6.67269 19.8726C6.45708 20.0882 6.10751 20.0882 5.8919 19.8726L5.40968 19.3903L4.92487 19.8752C4.70529 20.0947 4.34928 20.0947 4.1297 19.8752C3.91012 19.6556 3.91012 19.2996 4.1297 19.08L4.61451 18.5952L4.12712 18.1078C3.91151 17.8922 3.91151 17.5426 4.12712 17.327C4.34273 17.1114 4.69229 17.1114 4.9079 17.327L5.39529 17.8144L5.8801 17.3296C6.09968 17.11 6.45569 17.11 6.67527 17.3296C6.89485 17.5492 6.89485 17.9052 6.67527 18.1247L6.19046 18.6096L6.67269 19.0918C6.88829 19.3074 6.88829 19.657 6.67269 19.8726Z" fill="white"/>
<path d="M13.2002 16.7999C13.2002 14.8117 14.812 13.2 16.8002 13.2H20.4001C22.3884 13.2 24.0001 14.8117 24.0001 16.7999V20.3999C24.0001 22.3882 22.3884 23.9999 20.4001 23.9999H16.8002C14.812 23.9999 13.2002 22.3882 13.2002 20.3999V16.7999Z" fill="#1D92FF"/>
<path d="M16.8003 17.4556C16.8003 17.0934 17.0939 16.7998 17.4561 16.7998H19.7445C20.1067 16.7998 20.4003 17.0934 20.4003 17.4556C20.4003 17.8178 20.1067 18.1114 19.7445 18.1114H17.4561C17.0939 18.1114 16.8003 17.8178 16.8003 17.4556ZM16.8003 19.744C16.8003 19.3818 17.0939 19.0882 17.4561 19.0882H19.7445C20.1067 19.0882 20.4003 19.3818 20.4003 19.744C20.4003 20.1062 20.1067 20.3998 19.7445 20.3998H17.4561C17.0939 20.3998 16.8003 20.1062 16.8003 19.744Z" fill="white"/>
</svg>
