<svg width="196" height="302" viewBox="0 0 196 302" fill="none" xmlns="http://www.w3.org/2000/svg">
<rect opacity="0.5" x="16.2207" y="35.5293" width="163.559" height="21.8643" rx="4" fill="#5CB1FF"/>
<path opacity="0.5" fill-rule="evenodd" clip-rule="evenodd" d="M98.0002 79.2578H20.2207C18.0115 79.2578 16.2207 81.0487 16.2207 83.2578V91.656C16.2207 93.8651 18.0116 95.656 20.2207 95.656H98.0002V79.2578Z" fill="#5CB1FF"/>
<g opacity="0.5">
<mask id="path-3-inside-1" fill="white">
<path fill-rule="evenodd" clip-rule="evenodd" d="M98 95.6562L175.779 95.6562C177.988 95.6562 179.779 93.8654 179.779 91.6562L179.779 83.2581C179.779 81.0489 177.988 79.2581 175.779 79.2581L98 79.2581L98 95.6562Z"/>
</mask>
<path d="M98 95.6562L97 95.6562L97 96.6562L98 96.6562L98 95.6562ZM175.779 79.2581L175.779 78.2581L175.779 79.2581ZM98 79.2581L98 78.2581L97 78.2581L97 79.2581L98 79.2581ZM175.779 94.6562L98 94.6562L98 96.6562L175.779 96.6562L175.779 94.6562ZM178.779 91.6562C178.779 93.3131 177.436 94.6562 175.779 94.6562L175.779 96.6562C178.541 96.6562 180.779 94.4177 180.779 91.6562L178.779 91.6562ZM178.779 83.2581L178.779 91.6562L180.779 91.6562L180.779 83.2581L178.779 83.2581ZM175.779 80.2581C177.436 80.2581 178.779 81.6012 178.779 83.2581L180.779 83.2581C180.779 80.4966 178.541 78.2581 175.779 78.2581L175.779 80.2581ZM98 80.2581L175.779 80.2581L175.779 78.2581L98 78.2581L98 80.2581ZM97 79.2581L97 95.6562L99 95.6562L99 79.2581L97 79.2581Z" fill="#5CB1FF" mask="url(#path-3-inside-1)"/>
</g>
<path d="M108.138 197.834C108.138 198.386 107.69 198.834 107.138 198.834H99.3517V206.81C99.3517 207.363 98.904 207.81 98.3517 207.81H96.2966C95.7443 207.81 95.2966 207.363 95.2966 206.81V198.834H87.5103C86.9581 198.834 86.5103 198.386 86.5103 197.834V195.873C86.5103 195.32 86.9581 194.873 87.5103 194.873H95.2966V186.846C95.2966 186.294 95.7443 185.846 96.2966 185.846H98.3517C98.904 185.846 99.3517 186.294 99.3517 186.846V194.873H107.138C107.69 194.873 108.138 195.32 108.138 195.873V197.834Z" fill="#5CB1FF"/>
<rect x="16.7207" y="112.554" width="162.559" height="173.914" rx="6.5" stroke="#5CB1FF" stroke-dasharray="3 3"/>
<rect x="0.5" y="0.5" width="195" height="301" rx="6.5" stroke="#CFE8FF"/>
<ellipse cx="152.745" cy="10.9323" rx="2.70345" ry="2.73303" fill="#5CB1FF"/>
<ellipse cx="141.931" cy="10.9323" rx="2.70345" ry="2.73303" fill="#5CB1FF"/>
<ellipse cx="163.559" cy="10.9323" rx="2.70345" ry="2.73303" fill="#5CB1FF"/>
<rect x="171.669" y="8.19922" width="16.2207" height="5.46606" rx="2.73303" fill="#5CB1FF"/>
<ellipse opacity="0.33" cx="97.3241" cy="46.4617" rx="16.2207" ry="16.3982" fill="white"/>
<ellipse opacity="0.33" cx="97.3242" cy="46.4618" rx="8.11034" ry="8.19909" fill="white"/>
</svg>
